Beginning Computer Science with R
…
## [1] "data.frame"

Yep, it’s a data frame. But we can convert it to a tibble, as follows:

survey <- as_tibble(bcscr::m111survey)
class(survey)

## [1] "tbl_df"     "tbl"        "data.frame"

You can treat tibbles like data frames. For now the primary practical difference is manifest when you print a tibble to the Console:

survey

## # A tibble: 71 x 12
##    height ideal_ht sleep fastest weight_feel love_first extra_life seat 
##     <dbl>    <dbl> <dbl>   <int> <fct>       <fct>      <fct>      <fct>
##  1   76         78   9.5     119 1_underwei… no         yes        1_fr…
##  2   74         76   7       110 2_about_ri… no         yes        2_mi…
##  3   64         NA   9        85 2_about_ri… no         no         2_mi…
##  4   62         65   7       100 1_underwei… no         no         1_fr…
##  5   72         72   8        95 1_underwei… no         yes        3_ba…
##  6   70.8       NA  10       100 3_overweig… no         no         1_fr…
##  7   70         72   4        85 2_about_ri… no         yes        1_fr…
##  8   79         76   6       160 2_about_ri… no         yes        3_ba…
##  9   59         61   7        90 2_about_ri… no         yes        3_ba…
## 10   67         67   7        90 3_overweig… no         no         2_mi…
## # ... with 61 more rows, and 4 more variables: GPA <dbl>,
## #   enough_Sleep <fct>, sex <fct>, diff.ideal.act. <dbl>
The output is automatically truncated, and the number of columns printed is determined by the width of your screen. This is a great convenience when one is dealing with larger data sets.

Many larger data tables in packages will come to you as tibbles.

8.4 Subsetting with dplyr

The dplyr function filter() is the rough equivalent of select(): it picks out rows of a data frame (or similar objects such as a tibble). The dplyr function select() subsets for columns.

Thus you can use the two functions together to do perform sub-setting. With the pipe operator, your code can be quite easy to read:

survey %>% 
  filter((sex == "male" & height > 70) | (sex =="female" & height < 55)) %>% 
  select(sex, height, fastest)

## # A tibble: 22 x 3
##    sex    height fastest
##    <fct>   <dbl>   <int>
##  1 male     76       119
##  2 male     74       110
##  3 male     72        95
##  4 male     70.8     100
##  5 male     79       160
##  6 male     73       110
##  7 male     73       120
##  8 female   54       130
##  9 male     74       119
## 10 male     72       125
## # ... with 12 more rows

Note that dplyr data-functions like filter() and select() take a data table as their first argument, and return a data table as well. Hence they may be chained together as we saw in the above example.

With select() it’s easy to leave out columns, too:

survey %>% 
  select(-ideal_ht, -love_first)

## # A tibble: 71 x 10
##    height sleep fastest weight_feel extra_life seat    GPA enough_Sleep
##     <dbl> <dbl>   <int> <fct>       <fct>      <fct> <dbl> <fct>       
##  1   76     9.5     119 1_underwei… yes        1_fr…  3.56 no          
##  2   74     7       110 2_about_ri… yes        2_mi…  2.5  no          
##  3   64     9        85 2_about_ri… no         2_mi…  3.8  no          
##  4   62     7       100 1_underwei… no         1_fr…  3.5  no          
##  5   72     8        95 1_underwei… yes        3_ba…  3.2  no          
##  6   70.8  10       100 3_overweig… no         1_fr…  3.1  yes         
##  7   70     4        85 2_about_ri… yes        1_fr…  3.68 no          
##  8   79     6       160 2_about_ri… yes        3_ba…  2.7  yes         
##  9   59     7        90 2_about_ri… yes        3_ba…  2.8  no          
## 10   67     7        90 3_overweig… no         2_mi… NA    yes         
## # ... with 61 more rows, and 2 more variables: sex <fct>,
## #   diff.ideal.act. <dbl>
…
CPS85 %>% 
  filter(wage <= 40) %>% 
  ggplot(aes(x = sex, y = wage)) +
    geom_violin(fill = "burlywood")

8.5 Transforming Variables with dplyr

In dplyr you transform variables with the function mutate(). Here is an example:

survey %>% 
  mutate(dareDevil = fastest > 125) %>%
  select(sex, fastest, dareDevil)

## # A tibble: 71 x 3
##    sex    fastest dareDevil
##    <fct>    <int> <lgl>    
##  1 male       119 FALSE    
##  2 male       110 FALSE    
##  3 female      85 FALSE    
##  4 female     100 FALSE    
##  5 male        95 FALSE    
##  6 male       100 FALSE    
##  7 male        85 FALSE    
##  8 male       160 TRUE     
##  9 female      90 FALSE    
## 10 female      90 FALSE    
## # ... with 61 more rows
…
8.5.1 Practice Exercises

In mosaicData::CPS85 transform the wage variable to units of dollars per day. (Assume an 8-hour working day.)

8.5.2 Solutions to Practice Exercises

Try this:

CPS85 %>% 
  as_tibble() %>%                   # for display in Console
  mutate(dailyWage = wage * 8) %>% 
  select(sex, sector, dailyWage)    # for display in Console

## # A tibble: 534 x 3
##    sex   sector   dailyWage
##    <fct> <fct>        <dbl>
##  1 M     const         72  
##  2 M     sales         44  
##  3 F     sales         30.4
##  4 F     clerical      84  
##  5 M     const        120  
##  6 F     clerical      72  
##  7 F     service       76.6
##  8 M     sales        120  
##  9 M     manuf         88  
## 10 F     sales         40  
## # ... with 524 more rows
…
